<svg width="24" height="24" viewBox="0 0 24 24" fill="none" xmlns="http://www.w3.org/2000/svg">
<g id="icons / general">
<path id="notification" d="M21.168 14.4465C20.8541 14.1317 20.6052 13.7572 20.4358 13.3447C20.2663 12.9322 20.1797 12.49 20.1808 12.0435V9.24828C20.1808 7.0607 19.3189 4.96272 17.7846 3.41586C16.2503 1.86901 14.1694 1 11.9995 1C9.82974 1 7.7488 1.86901 6.21452 3.41586C4.68023 4.96272 3.81828 7.0607 3.81828 9.24828V12.0435C3.81944 12.49 3.73278 12.9322 3.56333 13.3447C3.39388 13.7572 3.145 14.1317 2.83107 14.4465C2.43426 14.8465 2.16401 15.3562 2.05453 15.9111C1.94504 16.466 2.00122 17.0411 2.21597 17.5638C2.43072 18.0865 2.79439 18.5332 3.26099 18.8475C3.72758 19.1618 4.27615 19.3295 4.8373 19.3295H7.5453C7.75394 20.3654 8.31137 21.2967 9.12314 21.9656C9.93492 22.6346 10.9511 23 11.9995 23C13.048 23 14.0642 22.6346 14.8759 21.9656C15.6877 21.2967 16.2452 20.3654 16.4538 19.3295H19.1627C19.7239 19.3295 20.2724 19.1618 20.739 18.8475C21.2056 18.5332 21.5693 18.0865 21.784 17.5638C21.9988 17.0411 22.055 16.466 21.9455 15.9111C21.836 15.3562 21.5657 14.8465 21.1689 14.4465H21.168ZM11.9995 21.1625C11.4375 21.1601 10.89 20.9827 10.4317 20.6546C9.97353 20.3265 9.62705 19.8637 9.43972 19.3295H14.5594C14.372 19.8637 14.0256 20.3265 13.5673 20.6546C13.1091 20.9827 12.5616 21.1601 11.9995 21.1625ZM19.1618 17.4966H4.8373C4.63567 17.4967 4.43853 17.4365 4.27084 17.3236C4.10316 17.2107 3.97245 17.0502 3.89527 16.8624C3.8181 16.6746 3.79792 16.468 3.83729 16.2686C3.87665 16.0692 3.9738 15.8861 4.11644 15.7424C4.59972 15.2578 4.98289 14.6813 5.24378 14.0464C5.50467 13.4115 5.63809 12.7308 5.63634 12.0435V9.24828C5.63634 7.54683 6.30675 5.91506 7.50008 4.71196C8.69341 3.50885 10.3119 2.83295 11.9995 2.83295C13.6872 2.83295 15.3057 3.50885 16.499 4.71196C17.6923 5.91506 18.3628 7.54683 18.3628 9.24828V12.0435C18.361 12.7308 18.4944 13.4115 18.7553 14.0464C19.0162 14.6813 19.3994 15.2578 19.8827 15.7424C20.0253 15.8861 20.1224 16.0692 20.1618 16.2686C20.2012 16.468 20.181 16.6746 20.1038 16.8624C20.0266 17.0502 19.8959 17.2107 19.7282 17.3236C19.5606 17.4365 19.3634 17.4967 19.1618 17.4966Z" fill="#62F49C"/>
</g>
</svg>
