<svg width="12" height="16" viewBox="0 0 12 16" fill="none" xmlns="http://www.w3.org/2000/svg">
    <path d="M10.8503 8.59713C10.4968 8.14436 9.98628 7.81507 9.35792 7.65042C9.82919 7.44462 10.1826 7.15649 10.4576 6.74488C10.7325 6.33327 10.8503 5.8805 10.8503 5.38657C10.8503 4.9338 10.7325 4.52219 10.5361 4.15174C10.3005 3.78129 10.0648 3.49317 9.71137 3.28736C9.39719 3.08156 9.00446 2.91691 8.61173 2.83459C8.29755 2.79343 7.78701 2.75227 7.19792 2.75227V0.200293H5.74482V2.75227H4.76301V0.200293H3.30992V2.75227H3.03501H2.48519H0.600098V4.23407H2.48519V11.6842H0.600098V13.2072H2.48519H3.03501H3.30992V15.8003H4.76301V13.2072H5.74482V15.8003H7.19792V13.2072C7.9441 13.2072 8.45464 13.166 8.69028 13.166C9.27937 13.0837 9.75064 12.919 10.1434 12.6721C10.5361 12.3839 10.8503 12.0546 11.0466 11.6019C11.2823 11.1491 11.4001 10.6963 11.4001 10.2024C11.4001 9.58499 11.2037 9.0499 10.8503 8.59713ZM8.49392 4.89264C8.69028 5.09844 8.76882 5.34541 8.76882 5.6747C8.76882 6.00399 8.65101 6.29211 8.45464 6.49792C8.25828 6.70372 7.9441 6.82721 7.59064 6.86837C7.39428 6.90953 6.88373 6.90953 6.01973 6.90953H4.60592V4.48103H5.82337C6.84446 4.48103 7.43355 4.48103 7.66919 4.52219C8.06192 4.56335 8.33682 4.68684 8.49392 4.89264ZM8.88664 10.9845C8.69028 11.1903 8.41537 11.3549 8.10119 11.3961C7.90482 11.4372 7.39428 11.4784 6.6481 11.4784H4.64519V8.67945H6.37319C7.35501 8.67945 7.98337 8.72061 8.25828 8.84409C8.53319 8.92641 8.76883 9.09106 8.92592 9.33802C9.08301 9.54383 9.16155 9.83195 9.16155 10.1201C9.16155 10.4494 9.08301 10.7375 8.88664 10.9845Z" fill="white"/>
</svg>
