<svg width="8" height="12" viewBox="0 0 8 12" fill="none" xmlns="http://www.w3.org/2000/svg">
    <path d="M3.95498 0.167384L3.95524 0.166504L7.54631 6.10809L3.95549 8.22451L0.364419 6.10812L3.95498 0.167384Z" fill="#1C1C20"/>
    <path d="M3.95522 11.8332L0.364258 6.7874L3.95533 8.90283L7.54842 6.7874L3.95522 11.8332Z" fill="#1C1C20"/>
</svg>
