<svg width="8" height="10" viewBox="0 0 8 10" fill="none" xmlns="http://www.w3.org/2000/svg">
    <path d="M6.02896 5.31193L5.76461 6.46402H3.92536C4.16283 7.25028 4.68182 7.64263 5.47562 7.64263C6.34783 7.64263 7.16403 7.34856 7.92422 6.76043V9.11843C7.29396 9.5672 6.53352 9.79159 5.64289 9.79159C4.20265 9.79159 3.13704 9.44838 2.44604 8.76196C1.75504 8.07554 1.33263 7.30956 1.1788 6.46402H0.083313L0.370813 5.31193H1.04289C1.03282 5.20071 1.02883 5.08899 1.03094 4.9773C1.02909 4.85548 1.03308 4.73365 1.04289 4.61225H0.232664L0.519417 3.45938H1.1788C1.70352 1.29196 3.14525 0.208252 5.50399 0.208252C6.27564 0.208252 7.05749 0.424058 7.84955 0.855669L7.30218 3.14815C6.75456 2.6219 6.18205 2.35851 5.58464 2.35799C4.80155 2.35799 4.2716 2.72512 3.99481 3.45938H6.17831L5.91322 4.61225H3.78049C3.77227 4.69649 3.76854 4.81739 3.76854 4.9773V5.31193H6.02896Z" fill="#1C1C20"/>
</svg>
