<svg width="25" height="24" viewBox="0 0 25 24" fill="none" xmlns="http://www.w3.org/2000/svg">
<path fill-rule="evenodd" clip-rule="evenodd" d="M14.6 2.99998C14.6 2.50292 15.0029 2.09998 15.5 2.09998L21.5 2.09998C21.997 2.09998 22.4 2.50292 22.4 2.99998V8.99998C22.4 9.49703 21.997 9.89998 21.5 9.89998C21.0029 9.89998 20.6 9.49703 20.6 8.99998V3.89998L15.5 3.89998C15.0029 3.89998 14.6 3.49703 14.6 2.99998ZM2.59998 2.99998C2.59998 2.50292 3.00292 2.09998 3.49998 2.09998H9.49998C9.99703 2.09998 10.4 2.50292 10.4 2.99998C10.4 3.49703 9.99703 3.89998 9.49998 3.89998H4.39998V8.99998C4.39998 9.49703 3.99703 9.89998 3.49998 9.89998C3.00292 9.89998 2.59998 9.49703 2.59998 8.99998V2.99998ZM3.49998 14.1C3.99703 14.1 4.39998 14.5029 4.39998 15L4.39998 20.1L9.49998 20.1C9.99703 20.1 10.4 20.5029 10.4 21C10.4 21.497 9.99703 21.9 9.49998 21.9L3.49998 21.9C3.00292 21.9 2.59998 21.497 2.59998 21L2.59998 15C2.59998 14.5029 3.00292 14.1 3.49998 14.1ZM21.5 14.1C21.997 14.1 22.4 14.5029 22.4 15V21C22.4 21.497 21.997 21.9 21.5 21.9H15.5C15.0029 21.9 14.6 21.497 14.6 21C14.6 20.5029 15.0029 20.1 15.5 20.1H20.6V15C20.6 14.5029 21.0029 14.1 21.5 14.1Z" fill="#AAAAAA"/>
</svg>
