<svg width="10" height="10" viewBox="0 0 10 10" fill="none" xmlns="http://www.w3.org/2000/svg">
    <path d="M0.833069 3.95434L1.53956 2.46062H4.20448C4.17076 2.3546 4.11259 2.25017 4.02828 2.14811C3.94397 2.04605 3.84028 1.95823 3.71719 1.88307C3.5941 1.8087 3.45668 1.74699 3.30493 1.70189C3.15318 1.65442 2.99131 1.63148 2.8227 1.63148H0.833069L1.53956 0.13855H9.16675L8.46026 1.63227H6.61817C6.69067 1.68449 6.75812 1.74541 6.82051 1.81582C6.88289 1.88386 6.93853 1.95427 6.98659 2.03102C7.03211 2.10539 7.07342 2.18055 7.10715 2.25492C7.13834 2.32929 7.16026 2.3997 7.16953 2.46062H9.16591L8.45942 3.95434H7.0161C6.90987 4.20751 6.75306 4.44803 6.54314 4.6743C6.33322 4.90295 6.08957 5.1039 5.8122 5.28508C5.5323 5.46626 5.23133 5.61579 4.90507 5.74C4.57964 5.86184 4.24916 5.94333 3.91362 5.98922L7.92155 9.86118H4.75416L1.18041 6.18068V4.80959H2.762C2.91375 4.80959 3.06381 4.78665 3.21051 4.73918C3.35973 4.69171 3.49715 4.62841 3.62024 4.5493C3.74585 4.47255 3.85377 4.3792 3.94566 4.27793C4.03755 4.17349 4.10247 4.06748 4.14125 3.95434H0.833069Z" fill="#1C1C20"/>
</svg>
