<svg width="18" height="14" viewBox="0 0 18 14" fill="none" xmlns="http://www.w3.org/2000/svg">
<g id="Group 5280">
<path id="Vector 338 (Stroke)" fill-rule="evenodd" clip-rule="evenodd" d="M0 0.8C0 0.358172 0.358172 0 0.8 0H16.8C17.2418 0 17.6 0.358172 17.6 0.8C17.6 1.24183 17.2418 1.6 16.8 1.6H0.8C0.358172 1.6 0 1.24183 0 0.8Z" fill="#1A1D43"/>
<path id="Vector 339 (Stroke)" fill-rule="evenodd" clip-rule="evenodd" d="M0 6.8C0 6.35817 0.358172 6 0.8 6H16.8C17.2418 6 17.6 6.35817 17.6 6.8C17.6 7.24183 17.2418 7.6 16.8 7.6H0.8C0.358172 7.6 0 7.24183 0 6.8Z" fill="#1A1D43"/>
<path id="Vector 340 (Stroke)" fill-rule="evenodd" clip-rule="evenodd" d="M0 12.8C0 12.3582 0.358172 12 0.8 12H16.8C17.2418 12 17.6 12.3582 17.6 12.8C17.6 13.2418 17.2418 13.6 16.8 13.6H0.8C0.358172 13.6 0 13.2418 0 12.8Z" fill="#1A1D43"/>
</g>
</svg>
