<svg width="20" height="20" viewBox="0 0 20 20" fill="none" xmlns="http://www.w3.org/2000/svg">
<path fill-rule="evenodd" clip-rule="evenodd" d="M12.9167 8.70089C13.174 8.93106 13.1959 9.32618 12.9658 9.58342L9.63244 13.3089C9.51388 13.4414 9.34448 13.5172 9.16667 13.5172C8.98885 13.5172 8.81946 13.4414 8.70089 13.3089L7.03423 11.4462C6.80406 11.1889 6.82601 10.7938 7.08325 10.5636C7.34049 10.3335 7.73561 10.3554 7.96578 10.6127L9.16667 11.9548L12.0342 8.74992C12.2644 8.49268 12.6595 8.47073 12.9167 8.70089Z" fill="#919BA6"/>
<path fill-rule="evenodd" clip-rule="evenodd" d="M10.2701 1.93621C10.3275 1.9637 10.3816 2.00042 10.4299 2.04628C12.2587 3.74998 14.6379 4.6316 17.0634 4.51462C17.3548 4.50056 17.6171 4.68998 17.6955 4.97099C18.0955 6.40522 18.2178 7.90892 18.0554 9.39319C17.893 10.8775 17.449 12.3135 16.7489 13.6159C16.0672 14.8837 15.1559 16.0006 14.065 16.9026L13.1766 16.0142L13.1891 16.0041C14.188 15.1962 15.0247 14.1832 15.6479 13.024C16.2711 11.8647 16.6676 10.5838 16.8128 9.25723C16.9403 8.09145 16.8713 6.91252 16.6103 5.77491C14.2043 5.769 11.8747 4.90604 10 3.33411C8.12527 4.90604 5.79567 5.769 3.38966 5.77491C3.12871 6.91252 3.05968 8.09145 3.18723 9.25723C3.33237 10.5838 3.7289 11.8647 4.35213 13.024C4.97532 14.1832 5.812 15.1962 6.81088 16.0041C7.76436 16.7753 8.8472 17.3448 10 17.6837C11.1425 17.3478 12.2163 16.7855 13.1635 16.0247L14.0521 16.9132C14.0265 16.9343 14.0009 16.9552 13.9752 16.976C12.8444 17.8906 11.5488 18.5578 10.1648 18.9362C10.0569 18.9657 9.94308 18.9657 9.83518 18.9362C8.45123 18.5578 7.1556 17.8906 6.02479 16.976C4.89407 16.0614 3.95137 14.9183 3.25115 13.6159C2.55096 12.3135 2.10705 10.8775 1.94465 9.39319C1.78225 7.90892 1.90451 6.40522 2.3045 4.97099C2.38288 4.68998 2.64524 4.50056 2.93664 4.51462C5.3621 4.6316 7.74131 3.74998 9.57013 2.04628C9.68997 1.93253 9.8448 1.87503 10 1.875C10.0923 1.87498 10.1848 1.8953 10.2701 1.93621Z" fill="#919BA6"/>
</svg>
