<svg width="170" height="78" viewBox="0 0 170 78" fill="none" xmlns="http://www.w3.org/2000/svg">
<path fill-rule="evenodd" clip-rule="evenodd" d="M75.5053 25.0764L70.5884 54.0925H78.5572L83.4742 25.0764H75.5053ZM100.09 24.5703C103.312 24.5703 105.685 25.2451 107.211 25.7512L106.194 31.993L105.516 31.6556C103.99 31.1495 102.125 30.6434 99.5815 30.6434C96.5296 30.6434 95.0036 31.993 95.0036 33.1739C95.0036 34.5235 96.6991 35.367 99.4119 36.7166C103.99 38.741 106.194 41.2714 106.194 44.6454C106.024 50.5498 100.599 54.4299 92.2908 54.4299C88.7302 54.4299 85.3392 53.7551 83.4742 52.9116L84.4915 46.5011L85.6783 46.8385C88.2216 48.0194 89.9171 48.3568 93.1386 48.3568C95.3427 48.3568 97.886 47.5133 97.886 45.6576C97.886 44.308 96.8687 43.4645 93.6472 41.9462C90.7648 40.5966 86.6956 38.2349 86.6956 34.1861C86.8652 28.4504 92.2908 24.5703 100.09 24.5703ZM121.453 25.0764H127.727L134 54.0925H126.71C126.71 54.0925 126.031 50.7185 125.692 49.7064H115.519C115.18 50.5498 113.824 54.0925 113.824 54.0925H105.516L117.384 27.4382C118.232 25.5825 119.588 25.0764 121.453 25.0764ZM120.945 35.7044C120.945 35.7044 118.571 42.1149 117.893 43.8019H124.505C124.166 42.2836 122.64 35.367 122.64 35.367L122.132 32.8365C121.623 34.0174 120.945 35.7044 120.945 35.7044ZM56.1766 44.8141L63.8063 25.0764H72.2839L59.7371 54.0925H51.4292L44.3854 28.8959C41.9333 27.5617 39.1328 26.491 35.9998 25.7513L36.1693 25.0765H48.8856C50.5811 25.0765 52.107 25.7513 52.4461 27.607L55.3278 40.7624C55.3282 40.7634 55.3285 40.7644 55.3288 40.7653L56.1766 44.8141Z" fill="#C9C9D5"/>
</svg>
