<svg width="20" height="20" viewBox="0 0 20 20" fill="none" xmlns="http://www.w3.org/2000/svg">
<g id="prize icon" clip-path="url(#clip0_19921_126289)">
<g id="Ellipse 194" filter="url(#filter0_i_19921_126289)">
<circle cx="10.0004" cy="9.9994" r="9.9994" fill="#FFDF00"/>
</g>
<g id="Ellipse 195" filter="url(#filter1_i_19921_126289)">
<circle cx="9.99967" cy="9.99967" r="7.91667" fill="#EBA600"/>
</g>
<g id="Star 19" filter="url(#filter2_d_19921_126289)">
<path d="M9.62122 5.40328C9.77014 5.08042 10.229 5.08042 10.3779 5.40328L11.4301 7.68444C11.4908 7.81602 11.6155 7.90663 11.7594 7.92369L14.2541 8.21947C14.6072 8.26133 14.749 8.69774 14.4879 8.93915L12.6436 10.6448C12.5372 10.7431 12.4895 10.8897 12.5178 11.0319L13.0074 13.4958C13.0767 13.8446 12.7054 14.1143 12.3952 13.9406L10.2031 12.7136C10.0766 12.6428 9.92251 12.6428 9.79606 12.7136L7.60398 13.9406C7.29373 14.1143 6.92249 13.8446 6.99179 13.4958L7.48137 11.0319C7.50962 10.8897 7.46198 10.7431 7.35559 10.6448L5.51123 8.93915C5.25019 8.69774 5.39199 8.26133 5.74507 8.21947L8.23972 7.92369C8.38363 7.90663 8.50833 7.81602 8.56902 7.68444L9.62122 5.40328Z" fill="#FFDF00"/>
<path d="M9.62122 5.40328C9.77014 5.08042 10.229 5.08042 10.3779 5.40328L11.4301 7.68444C11.4908 7.81602 11.6155 7.90663 11.7594 7.92369L14.2541 8.21947C14.6072 8.26133 14.749 8.69774 14.4879 8.93915L12.6436 10.6448C12.5372 10.7431 12.4895 10.8897 12.5178 11.0319L13.0074 13.4958C13.0767 13.8446 12.7054 14.1143 12.3952 13.9406L10.2031 12.7136C10.0766 12.6428 9.92251 12.6428 9.79606 12.7136L7.60398 13.9406C7.29373 14.1143 6.92249 13.8446 6.99179 13.4958L7.48137 11.0319C7.50962 10.8897 7.46198 10.7431 7.35559 10.6448L5.51123 8.93915C5.25019 8.69774 5.39199 8.26133 5.74507 8.21947L8.23972 7.92369C8.38363 7.90663 8.50833 7.81602 8.56902 7.68444L9.62122 5.40328Z" fill="url(#paint0_linear_19921_126289)"/>
</g>
</g>
<defs>
<filter id="filter0_i_19921_126289" x="0.000976562" y="0" width="19.999" height="19.999" filterUnits="userSpaceOnUse" color-interpolation-filters="sRGB">
<feFlood flood-opacity="0" result="BackgroundImageFix"/>
<feBlend mode="normal" in="SourceGraphic" in2="BackgroundImageFix" result="shape"/>
<feColorMatrix in="SourceAlpha" type="matrix" values="0 0 0 0 0 0 0 0 0 0 0 0 0 0 0 0 0 0 127 0" result="hardAlpha"/>
<feOffset dy="-1"/>
<feComposite in2="hardAlpha" operator="arithmetic" k2="-1" k3="1"/>
<feColorMatrix type="matrix" values="0 0 0 0 0 0 0 0 0 0 0 0 0 0 0 0 0 0 0.4 0"/>
<feBlend mode="normal" in2="shape" result="effect1_innerShadow_19921_126289"/>
</filter>
<filter id="filter1_i_19921_126289" x="2.08301" y="2.08301" width="15.833" height="15.833" filterUnits="userSpaceOnUse" color-interpolation-filters="sRGB">
<feFlood flood-opacity="0" result="BackgroundImageFix"/>
<feBlend mode="normal" in="SourceGraphic" in2="BackgroundImageFix" result="shape"/>
<feColorMatrix in="SourceAlpha" type="matrix" values="0 0 0 0 0 0 0 0 0 0 0 0 0 0 0 0 0 0 127 0" result="hardAlpha"/>
<feOffset dy="1"/>
<feComposite in2="hardAlpha" operator="arithmetic" k2="-1" k3="1"/>
<feColorMatrix type="matrix" values="0 0 0 0 0 0 0 0 0 0 0 0 0 0 0 0 0 0 0.2 0"/>
<feBlend mode="normal" in2="shape" result="effect1_innerShadow_19921_126289"/>
</filter>
<filter id="filter2_d_19921_126289" x="5.37695" y="5.16113" width="9.24512" height="9.83398" filterUnits="userSpaceOnUse" color-interpolation-filters="sRGB">
<feFlood flood-opacity="0" result="BackgroundImageFix"/>
<feColorMatrix in="SourceAlpha" type="matrix" values="0 0 0 0 0 0 0 0 0 0 0 0 0 0 0 0 0 0 127 0" result="hardAlpha"/>
<feOffset dy="1"/>
<feComposite in2="hardAlpha" operator="out"/>
<feColorMatrix type="matrix" values="0 0 0 0 0 0 0 0 0 0 0 0 0 0 0 0 0 0 0.2 0"/>
<feBlend mode="normal" in2="BackgroundImageFix" result="effect1_dropShadow_19921_126289"/>
<feBlend mode="normal" in="SourceGraphic" in2="effect1_dropShadow_19921_126289" result="shape"/>
</filter>
<linearGradient id="paint0_linear_19921_126289" x1="9.99955" y1="4.58293" x2="9.99955" y2="15.4163" gradientUnits="userSpaceOnUse">
<stop stop-color="white" stop-opacity="0.6"/>
<stop offset="0.526042" stop-color="white" stop-opacity="0"/>
</linearGradient>
<clipPath id="clip0_19921_126289">
<rect width="20" height="20" fill="white"/>
</clipPath>
</defs>
</svg>
