<svg width="108" height="114" viewBox="0 0 108 114" fill="none" xmlns="http://www.w3.org/2000/svg">
<g opacity="0.8" filter="url(#filter0_d_18159_3445)">
<path fill-rule="evenodd" clip-rule="evenodd" d="M30.2198 30.2064C30.2198 17.2339 40.8666 6.71765 54 6.71765C67.1335 6.71765 77.7802 17.2339 77.7802 30.2064V51.0852H85.707C89.5984 51.0852 92.7529 54.2011 92.7529 58.0448V96.3227C92.7529 100.166 89.5983 103.282 85.707 103.282H22.2931C18.4017 103.282 15.2471 100.166 15.2471 96.3227V58.0448C15.2471 54.2011 18.4017 51.0852 22.2931 51.0852H30.2198V30.2064ZM68.9727 30.2064V51.0852H39.0273V30.2064C39.0273 22.0385 45.7308 15.4172 54 15.4172C62.2692 15.4172 68.9727 22.0385 68.9727 30.2064ZM62.8074 71.967C62.8074 75.8623 60.2154 79.1597 56.6421 80.2682V92.8124C56.6421 94.2716 55.4592 95.4546 53.9999 95.4546C52.5406 95.4546 51.3576 94.2716 51.3576 92.8124V80.2682C47.7843 79.1597 45.1924 75.8623 45.1924 71.967C45.1924 67.1624 49.1356 63.2675 53.9999 63.2675C58.8641 63.2675 62.8074 67.1624 62.8074 71.967Z" fill="#42424F"/>
</g>
<defs>
<filter id="filter0_d_18159_3445" x="7.24707" y="0.717651" width="93.5059" height="112.565" filterUnits="userSpaceOnUse" color-interpolation-filters="sRGB">
<feFlood flood-opacity="0" result="BackgroundImageFix"/>
<feColorMatrix in="SourceAlpha" type="matrix" values="0 0 0 0 0 0 0 0 0 0 0 0 0 0 0 0 0 0 127 0" result="hardAlpha"/>
<feOffset dy="2"/>
<feGaussianBlur stdDeviation="4"/>
<feComposite in2="hardAlpha" operator="out"/>
<feColorMatrix type="matrix" values="0 0 0 0 0.0117647 0 0 0 0 0.0823529 0 0 0 0 0.113725 0 0 0 0.12 0"/>
<feBlend mode="normal" in2="BackgroundImageFix" result="effect1_dropShadow_18159_3445"/>
<feBlend mode="normal" in="SourceGraphic" in2="effect1_dropShadow_18159_3445" result="shape"/>
</filter>
</defs>
</svg>
