<svg width="12" height="12" viewBox="0 0 12 12" fill="none" xmlns="http://www.w3.org/2000/svg">
<g id="Group 5300">
<circle id="Ellipse 202" cx="6" cy="6" r="5.5" fill="#21C964"/>
<path id="Vector 58 (Stroke)" fill-rule="evenodd" clip-rule="evenodd" d="M3.13291 5.74609C3.3374 5.54801 3.66374 5.55321 3.86182 5.7577L5.0607 6.99537L7.96258 4.13814C8.16545 3.9384 8.49183 3.94093 8.69157 4.14379C8.89131 4.34666 8.88878 4.67303 8.68592 4.87278L5.41371 8.09465C5.31577 8.19108 5.18337 8.24441 5.04594 8.24278C4.9085 8.24115 4.77741 8.18471 4.68178 8.08598L3.1213 6.47501C2.92322 6.27052 2.92842 5.94417 3.13291 5.74609Z" fill="white"/>
</g>
</svg>
